Display_7_Segmentos/simulation/qsim/Display_7_Segmentos.msim.vcd
$comment
	File created using the following command:
		vcd file Display_7_Segmentos.msim.vcd -direction
$end
$date
	Mon Sep 04 16:56:07 2023
$end
$version
	ModelSim Version 10.5b
$end
$timescale
	1ps
$end

$scope module Display_7_Segmentos_vlg_vec_tst $end
$var reg 1 ! W_a $end
$var reg 1 " X_b $end
$var reg 1 # Y_c $end
$var reg 1 $ Z_d $end
$var wire 1 % OUT_A $end
$var wire 1 & OUT_B $end
$var wire 1 ' OUT_C $end
$var wire 1 ( OUT_D $end
$var wire 1 ) OUT_E $end
$var wire 1 * OUT_F $end
$var wire 1 + OUT_G $end

$scope module i1 $end
$var wire 1 , gnd $end
$var wire 1 - vcc $end
$var wire 1 . unknown $end
$var tri1 1 / devclrn $end
$var tri1 1 0 devpor $end
$var tri1 1 1 devoe $end
$var wire 1 2 OUT_A~output_o $end
$var wire 1 3 OUT_B~output_o $end
$var wire 1 4 OUT_C~output_o $end
$var wire 1 5 OUT_D~output_o $end
$var wire 1 6 OUT_E~output_o $end
$var wire 1 7 OUT_F~output_o $end
$var wire 1 8 OUT_G~output_o $end
$var wire 1 9 X_b~input_o $end
$var wire 1 : Y_c~input_o $end
$var wire 1 ; Z_d~input_o $end
$var wire 1 < W_a~input_o $end
$var wire 1 = t_a~combout $end
$var wire 1 > t_b~combout $end
$var wire 1 ? t_c~combout $end
$var wire 1 @ inst1~0_combout $end
$var wire 1 A inst5~0_combout $end
$var wire 1 B inst6~0_combout $end
$var wire 1 C inst7~0_combout $end
$upscope $end
$upscope $end
$enddefinitions $end
#0
$dumpvars
0!
0"
0#
0$
1%
1&
1'
1(
1)
1*
0+
0,
1-
x.
1/
10
11
12
13
14
15
16
17
08
09
0:
0;
0<
1=
1>
1?
1@
1A
1B
0C
$end
#10000
1!
1<
1C
18
1+
#20000
1"
0!
19
0<
0A
0@
0=
02
05
06
0)
0(
0%
#30000
1!
1<
1@
1=
12
15
1(
1%
#40000
1#
0"
0!
1:
09
0<
0B
1A
0?
04
16
07
0*
1)
0'
#50000
1!
1<
1B
17
1*
#60000
1"
0!
19
0<
1?
0>
03
14
1'
0&
#70000
1!
1<
#80000
1$
0#
0"
0!
1;
0:
09
0<
0C
0B
0A
0@
1>
0=
02
13
05
06
07
08
0+
0*
0)
0(
1&
0%
#90000
1!
1<
1C
1B
1@
1=
12
15
17
18
1+
1*
1(
1%
#100000
1"
0!
19
0<
0>
03
0&
#110000
1!
1<
#120000
1#
0"
0!
1:
09
0<
0B
1>
13
07
0*
1&
#130000
1!
1<
1B
17
1*
#140000
1"
0!
19
0<
0C
0B
0@
05
07
08
0+
0*
0(
#150000
1!
1<
1C
1B
1@
15
17
18
1+
1*
1(
#160000
0$
0#
0"
0!
0;
0:
09
0<
0C
1A
16
08
0+
1)
#170000
1!
1<
1C
18
1+
#180000
1"
0!
19
0<
0A
0@
0=
02
05
06
0)
0(
0%
#190000
1!
1<
1@
1=
12
15
1(
1%
#200000
1#
0"
0!
1:
09
0<
0B
1A
0?
04
16
07
0*
1)
0'
#210000
1!
1<
1B
17
1*
#220000
1"
0!
19
0<
1?
0>
03
14
1'
0&
#230000
1!
1<
#240000
1$
0#
0"
0!
1;
0:
09
0<
0C
0B
0A
0@
1>
0=
02
13
05
06
07
08
0+
0*
0)
0(
1&
0%
#250000
1!
1<
1C
1B
1@
1=
12
15
17
18
1+
1*
1(
1%
#260000
1"
0!
19
0<
0>
03
0&
#270000
1!
1<
#280000
1#
0"
0!
1:
09
0<
0B
1>
13
07
0*
1&
#290000
1!
1<
1B
17
1*
#300000
1"
0!
19
0<
0C
0B
0@
05
07
08
0+
0*
0(
#310000
1!
1<
1C
1B
1@
15
17
18
1+
1*
1(
#320000
0$
0#
0"
0!
0;
0:
09
0<
0C
1A
16
08
0+
1)
#330000
1!
1<
1C
18
1+
#340000
1"
0!
19
0<
0A
0@
0=
02
05
06
0)
0(
0%
#350000
1!
1<
1@
1=
12
15
1(
1%
#360000
1#
0"
0!
1:
09
0<
0B
1A
0?
04
16
07
0*
1)
0'
#370000
1!
1<
1B
17
1*
#380000
1"
0!
19
0<
1?
0>
03
14
1'
0&
#390000
1!
1<
#400000
1$
0#
0"
0!
1;
0:
09
0<
0C
0B
0A
0@
1>
0=
02
13
05
06
07
08
0+
0*
0)
0(
1&
0%
#410000
1!
1<
1C
1B
1@
1=
12
15
17
18
1+
1*
1(
1%
#420000
1"
0!
19
0<
0>
03
0&
#430000
1!
1<
#440000
1#
0"
0!
1:
09
0<
0B
1>
13
07
0*
1&
#450000
1!
1<
1B
17
1*
#460000
1"
0!
19
0<
0C
0B
0@
05
07
08
0+
0*
0(
#470000
1!
1<
1C
1B
1@
15
17
18
1+
1*
1(
#480000
0$
0#
0"
0!
0;
0:
09
0<
0C
1A
16
08
0+
1)
#490000
1!
1<
1C
18
1+
#500000
1"
0!
19
0<
0A
0@
0=
02
05
06
0)
0(
0%
#510000
1!
1<
1@
1=
12
15
1(
1%
#520000
1#
0"
0!
1:
09
0<
0B
1A
0?
04
16
07
0*
1)
0'
#530000
1!
1<
1B
17
1*
#540000
1"
0!
19
0<
1?
0>
03
14
1'
0&
#550000
1!
1<
#560000
1$
0#
0"
0!
1;
0:
09
0<
0C
0B
0A
0@
1>
0=
02
13
05
06
07
08
0+
0*
0)
0(
1&
0%
#570000
1!
1<
1C
1B
1@
1=
12
15
17
18
1+
1*
1(
1%
#580000
1"
0!
19
0<
0>
03
0&
#590000
1!
1<
#600000
1#
0"
0!
1:
09
0<
0B
1>
13
07
0*
1&
#610000
1!
1<
1B
17
1*
#620000
1"
0!
19
0<
0C
0B
0@
05
07
08
0+
0*
0(
#630000
1!
1<
1C
1B
1@
15
17
18
1+
1*
1(
#640000
0$
0#
0"
0!
0;
0:
09
0<
0C
1A
16
08
0+
1)
#650000
1!
1<
1C
18
1+
#660000
1"
0!
19
0<
0A
0@
0=
02
05
06
0)
0(
0%
#670000
1!
1<
1@
1=
12
15
1(
1%
#680000
1#
0"
0!
1:
09
0<
0B
1A
0?
04
16
07
0*
1)
0'
#690000
1!
1<
1B
17
1*
#700000
1"
0!
19
0<
1?
0>
03
14
1'
0&
#710000
1!
1<
#720000
1$
0#
0"
0!
1;
0:
09
0<
0C
0B
0A
0@
1>
0=
02
13
05
06
07
08
0+
0*
0)
0(
1&
0%
#730000
1!
1<
1C
1B
1@
1=
12
15
17
18
1+
1*
1(
1%
#740000
1"
0!
19
0<
0>
03
0&
#750000
1!
1<
#760000
1#
0"
0!
1:
09
0<
0B
1>
13
07
0*
1&
#770000
1!
1<
1B
17
1*
#780000
1"
0!
19
0<
0C
0B
0@
05
07
08
0+
0*
0(
#790000
1!
1<
1C
1B
1@
15
17
18
1+
1*
1(
#800000
0$
0#
0"
0!
0;
0:
09
0<
0C
1A
16
08
0+
1)
#810000
1!
1<
1C
18
1+
#820000
1"
0!
19
0<
0A
0@
0=
02
05
06
0)
0(
0%
#830000
1!
1<
1@
1=
12
15
1(
1%
#840000
1#
0"
0!
1:
09
0<
0B
1A
0?
04
16
07
0*
1)
0'
#850000
1!
1<
1B
17
1*
#860000
1"
0!
19
0<
1?
0>
03
14
1'
0&
#870000
1!
1<
#880000
1$
0#
0"
0!
1;
0:
09
0<
0C
0B
0A
0@
1>
0=
02
13
05
06
07
08
0+
0*
0)
0(
1&
0%
#890000
1!
1<
1C
1B
1@
1=
12
15
17
18
1+
1*
1(
1%
#900000
1"
0!
19
0<
0>
03
0&
#910000
1!
1<
#920000
1#
0"
0!
1:
09
0<
0B
1>
13
07
0*
1&
#930000
1!
1<
1B
17
1*
#940000
1"
0!
19
0<
0C
0B
0@
05
07
08
0+
0*
0(
#950000
1!
1<
1C
1B
1@
15
17
18
1+
1*
1(
#960000
0$
0#
0"
0!
0;
0:
09
0<
0C
1A
16
08
0+
1)
#970000
1!
1<
1C
18
1+
#980000
1"
0!
19
0<
0A
0@
0=
02
05
06
0)
0(
0%
#990000
1!
1<
1@
1=
12
15
1(
1%
#1000000
1#
0"
0!
1:
09
0<
0B
1A
0?
04
16
07
0*
1)
0'
#1010000
1!
1<
1B
17
1*
#1020000
1"
0!
19
0<
1?
0>
03
14
1'
0&
#1030000
1!
1<
#1040000
1$
0#
0"
0!
1;
0:
09
0<
0C
0B
0A
0@
1>
0=
02
13
05
06
07
08
0+
0*
0)
0(
1&
0%
#1050000
1!
1<
1C
1B
1@
1=
12
15
17
18
1+
1*
1(
1%
#1060000
1"
0!
19
0<
0>
03
0&
#1070000
1!
1<
#1080000
1#
0"
0!
1:
09
0<
0B
1>
13
07
0*
1&
#1090000
1!
1<
1B
17
1*
#1100000
1"
0!
19
0<
0C
0B
0@
05
07
08
0+
0*
0(
#1110000
1!
1<
1C
1B
1@
15
17
18
1+
1*
1(
#1120000
0$
0#
0"
0!
0;
0:
09
0<
0C
1A
16
08
0+
1)
#1130000
1!
1<
1C
18
1+
#1140000
1"
0!
19
0<
0A
0@
0=
02
05
06
0)
0(
0%
#1150000
1!
1<
1@
1=
12
15
1(
1%
#1160000
1#
0"
0!
1:
09
0<
0B
1A
0?
04
16
07
0*
1)
0'
#1170000
1!
1<
1B
17
1*
#1180000
1"
0!
19
0<
1?
0>
03
14
1'
0&
#1190000
1!
1<
#1200000
1$
0#
0"
0!
1;
0:
09
0<
0C
0B
0A
0@
1>
0=
02
13
05
06
07
08
0+
0*
0)
0(
1&
0%
#1210000
1!
1<
1C
1B
1@
1=
12
15
17
18
1+
1*
1(
1%
#1220000
1"
0!
19
0<
0>
03
0&
#1230000
1!
1<
#1240000
1#
0"
0!
1:
09
0<
0B
1>
13
07
0*
1&
#1250000
1!
1<
1B
17
1*
#1260000
1"
0!
19
0<
0C
0B
0@
05
07
08
0+
0*
0(
#1270000
1!
1<
1C
1B
1@
15
17
18
1+
1*
1(
#1280000
0$
0#
0"
0!
0;
0:
09
0<
0C
1A
16
08
0+
1)
#1290000
1!
1<
1C
18
1+
#1300000
1"
0!
19
0<
0A
0@
0=
02
05
06
0)
0(
0%
#1310000
1!
1<
1@
1=
12
15
1(
1%
#1320000
1#
0"
0!
1:
09
0<
0B
1A
0?
04
16
07
0*
1)
0'
#1330000
1!
1<
1B
17
1*
#1340000
1"
0!
19
0<
1?
0>
03
14
1'
0&
#1350000
1!
1<
#1360000
1$
0#
0"
0!
1;
0:
09
0<
0C
0B
0A
0@
1>
0=
02
13
05
06
07
08
0+
0*
0)
0(
1&
0%
#1370000
1!
1<
1C
1B
1@
1=
12
15
17
18
1+
1*
1(
1%
#1380000
1"
0!
19
0<
0>
03
0&
#1390000
1!
1<
#1400000
1#
0"
0!
1:
09
0<
0B
1>
13
07
0*
1&
#1410000
1!
1<
1B
17
1*
#1420000
1"
0!
19
0<
0C
0B
0@
05
07
08
0+
0*
0(
#1430000
1!
1<
1C
1B
1@
15
17
18
1+
1*
1(
#1440000
0$
0#
0"
0!
0;
0:
09
0<
0C
1A
16
08
0+
1)
#1450000
1!
1<
1C
18
1+
#1460000
1"
0!
19
0<
0A
0@
0=
02
05
06
0)
0(
0%
#1470000
1!
1<
1@
1=
12
15
1(
1%
#1480000
1#
0"
0!
1:
09
0<
0B
1A
0?
04
16
07
0*
1)
0'
#1490000
1!
1<
1B
17
1*
#1500000
1"
0!
19
0<
1?
0>
03
14
1'
0&
#1510000
1!
1<
#1520000
1$
0#
0"
0!
1;
0:
09
0<
0C
0B
0A
0@
1>
0=
02
13
05
06
07
08
0+
0*
0)
0(
1&
0%
#1530000
1!
1<
1C
1B
1@
1=
12
15
17
18
1+
1*
1(
1%
#1540000
1"
0!
19
0<
0>
03
0&
#1550000
1!
1<
#1560000
1#
0"
0!
1:
09
0<
0B
1>
13
07
0*
1&
#1570000
1!
1<
1B
17
1*
#1580000
1"
0!
19
0<
0C
0B
0@
05
07
08
0+
0*
0(
#1590000
1!
1<
1C
1B
1@
15
17
18
1+
1*
1(
#1600000
0$
0#
0"
0!
0;
0:
09
0<
0C
1A
16
08
0+
1)
#1610000
1!
1<
1C
18
1+
#1620000
1"
0!
19
0<
0A
0@
0=
02
05
06
0)
0(
0%
#1630000
1!
1<
1@
1=
12
15
1(
1%
#1640000
1#
0"
0!
1:
09
0<
0B
1A
0?
04
16
07
0*
1)
0'
#1650000
1!
1<
1B
17
1*
#1660000
1"
0!
19
0<
1?
0>
03
14
1'
0&
#1670000
1!
1<
#1680000
1$
0#
0"
0!
1;
0:
09
0<
0C
0B
0A
0@
1>
0=
02
13
05
06
07
08
0+
0*
0)
0(
1&
0%
#1690000
1!
1<
1C
1B
1@
1=
12
15
17
18
1+
1*
1(
1%
#1700000
1"
0!
19
0<
0>
03
0&
#1710000
1!
1<
#1720000
1#
0"
0!
1:
09
0<
0B
1>
13
07
0*
1&
#1730000
1!
1<
1B
17
1*
#1740000
1"
0!
19
0<
0C
0B
0@
05
07
08
0+
0*
0(
#1750000
1!
1<
1C
1B
1@
15
17
18
1+
1*
1(
#1760000
0$
0#
0"
0!
0;
0:
09
0<
0C
1A
16
08
0+
1)
#1770000
1!
1<
1C
18
1+
#1780000
1"
0!
19
0<
0A
0@
0=
02
05
06
0)
0(
0%
#1790000
1!
1<
1@
1=
12
15
1(
1%
#1800000
1#
0"
0!
1:
09
0<
0B
1A
0?
04
16
07
0*
1)
0'
#1810000
1!
1<
1B
17
1*
#1820000
1"
0!
19
0<
1?
0>
03
14
1'
0&
#1830000
1!
1<
#1840000
1$
0#
0"
0!
1;
0:
09
0<
0C
0B
0A
0@
1>
0=
02
13
05
06
07
08
0+
0*
0)
0(
1&
0%
#1850000
1!
1<
1C
1B
1@
1=
12
15
17
18
1+
1*
1(
1%
#1860000
1"
0!
19
0<
0>
03
0&
#1870000
1!
1<
#1880000
1#
0"
0!
1:
09
0<
0B
1>
13
07
0*
1&
#1890000
1!
1<
1B
17
1*
#1900000
1"
0!
19
0<
0C
0B
0@
05
07
08
0+
0*
0(
#1910000
1!
1<
1C
1B
1@
15
17
18
1+
1*
1(
#1920000
0$
0#
0"
0!
0;
0:
09
0<
0C
1A
16
08
0+
1)
#1930000
1!
1<
1C
18
1+
#1940000
1"
0!
19
0<
0A
0@
0=
02
05
06
0)
0(
0%
#1950000
1!
1<
1@
1=
12
15
1(
1%
#1960000
1#
0"
0!
1:
09
0<
0B
1A
0?
04
16
07
0*
1)
0'
#1970000
1!
1<
1B
17
1*
#1980000
1"
0!
19
0<
1?
0>
03
14
1'
0&
#1990000
1!
1<
#2000000
1$
0#
0"
0!
1;
0:
09
0<
0C
0B
0A
0@
1>
0=
02
13
05
06
07
08
0+
0*
0)
0(
1&
0%
#2010000
1!
1<
1C
1B
1@
1=
12
15
17
18
1+
1*
1(
1%
#2020000
1"
0!
19
0<
0>
03
0&
#2030000
1!
1<
#2040000
1#
0"
0!
1:
09
0<
0B
1>
13
07
0*
1&
#2050000
1!
1<
1B
17
1*
#2060000
1"
0!
19
0<
0C
0B
0@
05
07
08
0+
0*
0(
#2070000
1!
1<
1C
1B
1@
15
17
18
1+
1*
1(
#2080000
0$
0#
0"
0!
0;
0:
09
0<
0C
1A
16
08
0+
1)
#2090000
1!
1<
1C
18
1+
#2100000
1"
0!
19
0<
0A
0@
0=
02
05
06
0)
0(
0%
#2110000
1!
1<
1@
1=
12
15
1(
1%
#2120000
1#
0"
0!
1:
09
0<
0B
1A
0?
04
16
07
0*
1)
0'
#2130000
1!
1<
1B
17
1*
#2140000
1"
0!
19
0<
1?
0>
03
14
1'
0&
#2150000
1!
1<
#2160000
1$
0#
0"
0!
1;
0:
09
0<
0C
0B
0A
0@
1>
0=
02
13
05
06
07
08
0+
0*
0)
0(
1&
0%
#2170000
1!
1<
1C
1B
1@
1=
12
15
17
18
1+
1*
1(
1%
#2180000
1"
0!
19
0<
0>
03
0&
#2190000
1!
1<
#2200000
1#
0"
0!
1:
09
0<
0B
1>
13
07
0*
1&
#2210000
1!
1<
1B
17
1*
#2220000
1"
0!
19
0<
0C
0B
0@
05
07
08
0+
0*
0(
#2230000
1!
1<
1C
1B
1@
15
17
18
1+
1*
1(
#2240000
0$
0#
0"
0!
0;
0:
09
0<
0C
1A
16
08
0+
1)
#2250000
1!
1<
1C
18
1+
#2260000
1"
0!
19
0<
0A
0@
0=
02
05
06
0)
0(
0%
#2270000
1!
1<
1@
1=
12
15
1(
1%
#2280000
1#
0"
0!
1:
09
0<
0B
1A
0?
04
16
07
0*
1)
0'
#2290000
1!
1<
1B
17
1*
#2300000
1"
0!
19
0<
1?
0>
03
14
1'
0&
#2310000
1!
1<
#2320000
1$
0#
0"
0!
1;
0:
09
0<
0C
0B
0A
0@
1>
0=
02
13
05
06
07
08
0+
0*
0)
0(
1&
0%
#2330000
1!
1<
1C
1B
1@
1=
12
15
17
18
1+
1*
1(
1%
#2340000
1"
0!
19
0<
0>
03
0&
#2350000
1!
1<
#2360000
1#
0"
0!
1:
09
0<
0B
1>
13
07
0*
1&
#2370000
1!
1<
1B
17
1*
#2380000
1"
0!
19
0<
0C
0B
0@
05
07
08
0+
0*
0(
#2390000
1!
1<
1C
1B
1@
15
17
18
1+
1*
1(
#2400000
0$
0#
0"
0!
0;
0:
09
0<
0C
1A
16
08
0+
1)
#2410000
1!
1<
1C
18
1+
#2420000
1"
0!
19
0<
0A
0@
0=
02
05
06
0)
0(
0%
#2430000
1!
1<
1@
1=
12
15
1(
1%
#2440000
1#
0"
0!
1:
09
0<
0B
1A
0?
04
16
07
0*
1)
0'
#2450000
1!
1<
1B
17
1*
#2460000
1"
0!
19
0<
1?
0>
03
14
1'
0&
#2470000
1!
1<
#2480000
1$
0#
0"
0!
1;
0:
09
0<
0C
0B
0A
0@
1>
0=
02
13
05
06
07
08
0+
0*
0)
0(
1&
0%
#2490000
1!
1<
1C
1B
1@
1=
12
15
17
18
1+
1*
1(
1%
#2500000
1"
0!
19
0<
0>
03
0&
#2510000
1!
1<
#2520000
1#
0"
0!
1:
09
0<
0B
1>
13
07
0*
1&
#2530000
1!
1<
1B
17
1*
#2540000
1"
0!
19
0<
0C
0B
0@
05
07
08
0+
0*
0(
#2550000
1!
1<
1C
1B
1@
15
17
18
1+
1*
1(
#2560000
0$
0#
0"
0!
0;
0:
09
0<
0C
1A
16
08
0+
1)
#2570000
1!
1<
1C
18
1+
#2580000
1"
0!
19
0<
0A
0@
0=
02
05
06
0)
0(
0%
#2590000
1!
1<
1@
1=
12
15
1(
1%
#2600000
1#
0"
0!
1:
09
0<
0B
1A
0?
04
16
07
0*
1)
0'
#2610000
1!
1<
1B
17
1*
#2620000
1"
0!
19
0<
1?
0>
03
14
1'
0&
#2630000
1!
1<
#2640000
1$
0#
0"
0!
1;
0:
09
0<
0C
0B
0A
0@
1>
0=
02
13
05
06
07
08
0+
0*
0)
0(
1&
0%
#2650000
1!
1<
1C
1B
1@
1=
12
15
17
18
1+
1*
1(
1%
#2660000
1"
0!
19
0<
0>
03
0&
#2670000
1!
1<
#2680000
1#
0"
0!
1:
09
0<
0B
1>
13
07
0*
1&
#2690000
1!
1<
1B
17
1*
#2700000
1"
0!
19
0<
0C
0B
0@
05
07
08
0+
0*
0(
#2710000
1!
1<
1C
1B
1@
15
17
18
1+
1*
1(
#2720000
0$
0#
0"
0!
0;
0:
09
0<
0C
1A
16
08
0+
1)
#2730000
1!
1<
1C
18
1+
#2740000
1"
0!
19
0<
0A
0@
0=
02
05
06
0)
0(
0%
#2750000
1!
1<
1@
1=
12
15
1(
1%
#2760000
1#
0"
0!
1:
09
0<
0B
1A
0?
04
16
07
0*
1)
0'
#2770000
1!
1<
1B
17
1*
#2780000
1"
0!
19
0<
1?
0>
03
14
1'
0&
#2790000
1!
1<
#2800000
1$
0#
0"
0!
1;
0:
09
0<
0C
0B
0A
0@
1>
0=
02
13
05
06
07
08
0+
0*
0)
0(
1&
0%
#2810000
1!
1<
1C
1B
1@
1=
12
15
17
18
1+
1*
1(
1%
#2820000
1"
0!
19
0<
0>
03
0&
#2830000
1!
1<
#2840000
1#
0"
0!
1:
09
0<
0B
1>
13
07
0*
1&
#2850000
1!
1<
1B
17
1*
#2860000
1"
0!
19
0<
0C
0B
0@
05
07
08
0+
0*
0(
#2870000
1!
1<
1C
1B
1@
15
17
18
1+
1*
1(
#2880000
0$
0#
0"
0!
0;
0:
09
0<
0C
1A
16
08
0+
1)
#2890000
1!
1<
1C
18
1+
#2900000
1"
0!
19
0<
0A
0@
0=
02
05
06
0)
0(
0%
#2910000
1!
1<
1@
1=
12
15
1(
1%
#2920000
1#
0"
0!
1:
09
0<
0B
1A
0?
04
16
07
0*
1)
0'
#2930000
1!
1<
1B
17
1*
#2940000
1"
0!
19
0<
1?
0>
03
14
1'
0&
#2950000
1!
1<
#2960000
1$
0#
0"
0!
1;
0:
09
0<
0C
0B
0A
0@
1>
0=
02
13
05
06
07
08
0+
0*
0)
0(
1&
0%
#2970000
1!
1<
1C
1B
1@
1=
12
15
17
18
1+
1*
1(
1%
#2980000
1"
0!
19
0<
0>
03
0&
#2990000
1!
1<
#3000000
1#
0"
0!
1:
09
0<
0B
1>
13
07
0*
1&
#3010000
1!
1<
1B
17
1*
#3020000
1"
0!
19
0<
0C
0B
0@
05
07
08
0+
0*
0(
#3030000
1!
1<
1C
1B
1@
15
17
18
1+
1*
1(
#3040000
0$
0#
0"
0!
0;
0:
09
0<
0C
1A
16
08
0+
1)
#3050000
1!
1<
1C
18
1+
#3060000
1"
0!
19
0<
0A
0@
0=
02
05
06
0)
0(
0%
#3070000
1!
1<
1@
1=
12
15
1(
1%
#3080000
1#
0"
0!
1:
09
0<
0B
1A
0?
04
16
07
0*
1)
0'
#3090000
1!
1<
1B
17
1*
#3100000
1"
0!
19
0<
1?
0>
03
14
1'
0&
#3110000
1!
1<
#3120000
1$
0#
0"
0!
1;
0:
09
0<
0C
0B
0A
0@
1>
0=
02
13
05
06
07
08
0+
0*
0)
0(
1&
0%
#3130000
1!
1<
1C
1B
1@
1=
12
15
17
18
1+
1*
1(
1%
#3140000
1"
0!
19
0<
0>
03
0&
#3150000
1!
1<
#3160000
1#
0"
0!
1:
09
0<
0B
1>
13
07
0*
1&
#3170000
1!
1<
1B
17
1*
#3180000
1"
0!
19
0<
0C
0B
0@
05
07
08
0+
0*
0(
#3190000
1!
1<
1C
1B
1@
15
17
18
1+
1*
1(
#3200000
0$
0#
0"
0!
0;
0:
09
0<
0C
1A
16
08
0+
1)
#3210000
1!
1<
1C
18
1+
#3220000
1"
0!
19
0<
0A
0@
0=
02
05
06
0)
0(
0%
#3230000
1!
1<
1@
1=
12
15
1(
1%
#3240000
1#
0"
0!
1:
09
0<
0B
1A
0?
04
16
07
0*
1)
0'
#3250000
1!
1<
1B
17
1*
#3260000
1"
0!
19
0<
1?
0>
03
14
1'
0&
#3270000
1!
1<
#3280000
1$
0#
0"
0!
1;
0:
09
0<
0C
0B
0A
0@
1>
0=
02
13
05
06
07
08
0+
0*
0)
0(
1&
0%
#3290000
1!
1<
1C
1B
1@
1=
12
15
17
18
1+
1*
1(
1%
#3300000
1"
0!
19
0<
0>
03
0&
#3310000
1!
1<
#3320000
1#
0"
0!
1:
09
0<
0B
1>
13
07
0*
1&
#3330000
1!
1<
1B
17
1*
#3340000
1"
0!
19
0<
0C
0B
0@
05
07
08
0+
0*
0(
#3350000
1!
1<
1C
1B
1@
15
17
18
1+
1*
1(
#3360000
0$
0#
0"
0!
0;
0:
09
0<
0C
1A
16
08
0+
1)
#3370000
1!
1<
1C
18
1+
#3380000
1"
0!
19
0<
0A
0@
0=
02
05
06
0)
0(
0%
#3390000
1!
1<
1@
1=
12
15
1(
1%
#3400000
1#
0"
0!
1:
09
0<
0B
1A
0?
04
16
07
0*
1)
0'
#3410000
1!
1<
1B
17
1*
#3420000
1"
0!
19
0<
1?
0>
03
14
1'
0&
#3430000
1!
1<
#3440000
1$
0#
0"
0!
1;
0:
09
0<
0C
0B
0A
0@
1>
0=
02
13
05
06
07
08
0+
0*
0)
0(
1&
0%
#3450000
1!
1<
1C
1B
1@
1=
12
15
17
18
1+
1*
1(
1%
#3460000
1"
0!
19
0<
0>
03
0&
#3470000
1!
1<
#3480000
1#
0"
0!
1:
09
0<
0B
1>
13
07
0*
1&
#3490000
1!
1<
1B
17
1*
#3500000
1"
0!
19
0<
0C
0B
0@
05
07
08
0+
0*
0(
#3510000
1!
1<
1C
1B
1@
15
17
18
1+
1*
1(
#3520000
0$
0#
0"
0!
0;
0:
09
0<
0C
1A
16
08
0+
1)
#3530000
1!
1<
1C
18
1+
#3540000
1"
0!
19
0<
0A
0@
0=
02
05
06
0)
0(
0%
#3550000
1!
1<
1@
1=
12
15
1(
1%
#3560000
1#
0"
0!
1:
09
0<
0B
1A
0?
04
16
07
0*
1)
0'
#3570000
1!
1<
1B
17
1*
#3580000
1"
0!
19
0<
1?
0>
03
14
1'
0&
#3590000
1!
1<
#3600000
1$
0#
0"
0!
1;
0:
09
0<
0C
0B
0A
0@
1>
0=
02
13
05
06
07
08
0+
0*
0)
0(
1&
0%
#3610000
1!
1<
1C
1B
1@
1=
12
15
17
18
1+
1*
1(
1%
#3620000
1"
0!
19
0<
0>
03
0&
#3630000
1!
1<
#3640000
1#
0"
0!
1:
09
0<
0B
1>
13
07
0*
1&
#3650000
1!
1<
1B
17
1*
#3660000
1"
0!
19
0<
0C
0B
0@
05
07
08
0+
0*
0(
#3670000
1!
1<
1C
1B
1@
15
17
18
1+
1*
1(
#3680000
0$
0#
0"
0!
0;
0:
09
0<
0C
1A
16
08
0+
1)
#3690000
1!
1<
1C
18
1+
#3700000
1"
0!
19
0<
0A
0@
0=
02
05
06
0)
0(
0%
#3710000
1!
1<
1@
1=
12
15
1(
1%
#3720000
1#
0"
0!
1:
09
0<
0B
1A
0?
04
16
07
0*
1)
0'
#3730000
1!
1<
1B
17
1*
#3740000
1"
0!
19
0<
1?
0>
03
14
1'
0&
#3750000
1!
1<
#3760000
1$
0#
0"
0!
1;
0:
09
0<
0C
0B
0A
0@
1>
0=
02
13
05
06
07
08
0+
0*
0)
0(
1&
0%
#3770000
1!
1<
1C
1B
1@
1=
12
15
17
18
1+
1*
1(
1%
#3780000
1"
0!
19
0<
0>
03
0&
#3790000
1!
1<
#3800000
1#
0"
0!
1:
09
0<
0B
1>
13
07
0*
1&
#3810000
1!
1<
1B
17
1*
#3820000
1"
0!
19
0<
0C
0B
0@
05
07
08
0+
0*
0(
#3830000
1!
1<
1C
1B
1@
15
17
18
1+
1*
1(
#3840000
0$
0#
0"
0!
0;
0:
09
0<
0C
1A
16
08
0+
1)
#3850000
1!
1<
1C
18
1+
#3860000
1"
0!
19
0<
0A
0@
0=
02
05
06
0)
0(
0%
#3870000
1!
1<
1@
1=
12
15
1(
1%
#3880000
1#
0"
0!
1:
09
0<
0B
1A
0?
04
16
07
0*
1)
0'
#3890000
1!
1<
1B
17
1*
#3900000
1"
0!
19
0<
1?
0>
03
14
1'
0&
#3910000
1!
1<
#3920000
1$
0#
0"
0!
1;
0:
09
0<
0C
0B
0A
0@
1>
0=
02
13
05
06
07
08
0+
0*
0)
0(
1&
0%
#3930000
1!
1<
1C
1B
1@
1=
12
15
17
18
1+
1*
1(
1%
#3940000
1"
0!
19
0<
0>
03
0&
#3950000
1!
1<
#3960000
1#
0"
0!
1:
09
0<
0B
1>
13
07
0*
1&
#3970000
1!
1<
1B
17
1*
#3980000
1"
0!
19
0<
0C
0B
0@
05
07
08
0+
0*
0(
#3990000
1!
1<
1C
1B
1@
15
17
18
1+
1*
1(
#4000000
0$
0#
0"
0!
0;
0:
09
0<
0C
1A
16
08
0+
1)
#4010000
1!
1<
1C
18
1+
#4020000
1"
0!
19
0<
0A
0@
0=
02
05
06
0)
0(
0%
#4030000
1!
1<
1@
1=
12
15
1(
1%
#4040000
1#
0"
0!
1:
09
0<
0B
1A
0?
04
16
07
0*
1)
0'
#4050000
1!
1<
1B
17
1*
#4060000
1"
0!
19
0<
1?
0>
03
14
1'
0&
#4070000
1!
1<
#4080000
1$
0#
0"
0!
1;
0:
09
0<
0C
0B
0A
0@
1>
0=
02
13
05
06
07
08
0+
0*
0)
0(
1&
0%
#4090000
1!
1<
1C
1B
1@
1=
12
15
17
18
1+
1*
1(
1%
#4100000
1"
0!
19
0<
0>
03
0&
#4110000
1!
1<
#4120000
1#
0"
0!
1:
09
0<
0B
1>
13
07
0*
1&
#4130000
1!
1<
1B
17
1*
#4140000
1"
0!
19
0<
0C
0B
0@
05
07
08
0+
0*
0(
#4150000
1!
1<
1C
1B
1@
15
17
18
1+
1*
1(
#4160000
0$
0#
0"
0!
0;
0:
09
0<
0C
1A
16
08
0+
1)
#4170000
1!
1<
1C
18
1+
#4180000
1"
0!
19
0<
0A
0@
0=
02
05
06
0)
0(
0%
#4190000
1!
1<
1@
1=
12
15
1(
1%
#4200000
1#
0"
0!
1:
09
0<
0B
1A
0?
04
16
07
0*
1)
0'
#4210000
1!
1<
1B
17
1*
#4220000
1"
0!
19
0<
1?
0>
03
14
1'
0&
#4230000
1!
1<
#4240000
1$
0#
0"
0!
1;
0:
09
0<
0C
0B
0A
0@
1>
0=
02
13
05
06
07
08
0+
0*
0)
0(
1&
0%
#4250000
1!
1<
1C
1B
1@
1=
12
15
17
18
1+
1*
1(
1%
#4260000
1"
0!
19
0<
0>
03
0&
#4270000
1!
1<
#4280000
1#
0"
0!
1:
09
0<
0B
1>
13
07
0*
1&
#4290000
1!
1<
1B
17
1*
#4300000
1"
0!
19
0<
0C
0B
0@
05
07
08
0+
0*
0(
#4310000
1!
1<
1C
1B
1@
15
17
18
1+
1*
1(
#4320000
0$
0#
0"
0!
0;
0:
09
0<
0C
1A
16
08
0+
1)
#4330000
1!
1<
1C
18
1+
